C:\Users\vikru\OneDrive - Microsoft Student Partners\Documents\My documents\Bsc.Csit\7th\finalyearproject-notificationsystem\NetCore\CNS
--output-path=obj\Release\netcoreapp2.0\
--application-name=CNS
--content-root=C:\Users\vikru\OneDrive - Microsoft Student Partners\Documents\My documents\Bsc.Csit\7th\finalyearproject-notificationsystem\NetCore\CNS
--file=
