{
  "project_info": {
    "project_number": "18229689925",
    "firebase_url": "https://cns-kathford.firebaseio.com",
    "project_id": "cns-kathford",
    "storage_bucket": "cns-kathford.appspot.com"
  },
  "client": [
    {
      "client_info": {
        "mobilesdk_app_id": "1:18229689925:android:257b07b370b80d6f",
        "android_client_info": {
          "package_name": "cns.kathford.com.cns_kathford_student"
        }
      },
      "oauth_client": [
        {
          "client_id": "18229689925-mloagd07vpukp64kbplje2pg6ib8geto.apps.googleusercontent.com",
          "client_type": 3
        },
        {
          "client_id": "18229689925-mloagd07vpukp64kbplje2pg6ib8geto.apps.googleusercontent.com",
          "client_type": 3
        }
      ],
      "api_key": [
        {
          "current_key": "AIzaSyA8J6Xk10E0apw12wWUAO9PMpPbNMwGOXc"
        }
      ],
      "services": {
        "analytics_service": {
          "status": 1
        },
        "appinvite_service": {
          "status": 1,
          "other_platform_oauth_client": []
        },
        "ads_service": {
          "status": 2
        }
      }
    }
  ],
  "configuration_version": "1"
}